module github.com/awslabs/tecli

go 1.15

require (
	github.com/hashicorp/go-retryablehttp v0.6.8 // indirect
	github.com/hashicorp/go-slug v0.6.0 // indirect
	github.com/hashicorp/go-tfe v0.12.0
	github.com/magiconair/properties v1.8.1 // indirect
	github.com/mitchellh/go-homedir v1.1.0
	github.com/niemeyer/pretty v0.0.0-20200227124842-a10e7caefd8e // indirect
	github.com/sirupsen/logrus v1.2.0
	github.com/spf13/afero v1.3.4 // indirect
	github.com/spf13/cobra v1.0.0
	github.com/spf13/pflag v1.0.5 // indirect
	github.com/spf13/viper v1.4.0
	github.com/stretchr/testify v1.6.1
	golang.org/x/crypto v0.0.0-20200728195943-123391ffb6de
	golang.org/x/sys v0.0.0-20200615200032-f1bc736245b1 // indirect
	golang.org/x/time v0.0.0-20201208040808-7e3f01d25324 // indirect
	gopkg.in/check.v1 v1.0.0-20200227125254-8fa46927fb4f // indirect
	gopkg.in/yaml.v2 v2.2.8
	gopkg.in/yaml.v3 v3.0.0-20200615113413-eeeca48fe776 // indirect
)
